…
    ## Rows: 1238 Columns: 6
    ## ── Column specification ────────────────────────────────────────────────────────
    ## Delimiter: ","
    ## chr (3): Name, Current Address, Pregnancy Details
    ## dbl (3): Current Age, First Pregnancy Year, Age at First Pregnancy
    ## 
    ## ℹ Use `spec()` to retrieve the full column specification for this data.
    ## ℹ Specify the column types or set `show_col_types = FALSE` to quiet this message.

``` r
# View Data
pregnancy_df
```

    ## # A tibble: 1,238 × 6
    ##    Name              `Current Address`      `Current Age` `First Pregnancy Year`
    ##    <chr>             <chr>                          <dbl>                  <dbl>
    ##  1 Krisha Lingutla   Arcadia 1                         51                    330
    ##  2 Claudette Kimura  Arcadia 2                         20                    364
    ##  3 Niamh Morris      Arcadia 3                         40                    343
    ##  4 Shona Young       Arcadia 4                         53                    330
    ##  5 Megumi Endo       Arcadia 5 to be close…            55                    331
    ##  6 Jaye Wilson       Arcadia 8                         25                    356
    ##  7 Rosalind Sorensen Arcadia 9                         20                    364
    ##  8 Renee Blomgren    Arcadia 10                        46                    336
    ##  9 Rina Bhasin       Arcadia 12                        26                    364
    ## 10 Kanoko Nakajima   Arcadia 13                        37                    345
    ## # ℹ 1,228 more rows
    ## # ℹ 2 more variables: `Age at First Pregnancy` <dbl>, `Pregnancy Details` <chr>
…
``` r
# Get rid of anything that isn't the address
 pregnancy_df <- pregnancy_df %>%
   mutate(
     `Current Address` = str_extract(`Current Address`, "Arcadia\\s*\\d+")
   )
 
 pregnancy_df
```

    ## # A tibble: 1,238 × 6
    ##    Name              `Current Address` `Current Age` `First Pregnancy Year`
    ##    <chr>             <chr>                     <dbl>                  <dbl>
    ##  1 Krisha Lingutla   Arcadia 1                    51                    330
    ##  2 Claudette Kimura  Arcadia 2                    20                    364
    ##  3 Niamh Morris      Arcadia 3                    40                    343
    ##  4 Shona Young       Arcadia 4                    53                    330
    ##  5 Megumi Endo       Arcadia 5                    55                    331
    ##  6 Jaye Wilson       Arcadia 8                    25                    356
    ##  7 Rosalind Sorensen Arcadia 9                    20                    364
    ##  8 Renee Blomgren    Arcadia 10                   46                    336
    ##  9 Rina Bhasin       Arcadia 12                   26                    364
    ## 10 Kanoko Nakajima   Arcadia 13                   37                    345
    ## # ℹ 1,228 more rows
    ## # ℹ 2 more variables: `Age at First Pregnancy` <dbl>, `Pregnancy Details` <chr>
…
